%YAML 1.1
%TAG !u! tag:unity3d.com,2011:
--- !u!114 &11400000
MonoBehaviour:
  m_ObjectHideFlags: 0
  m_CorrespondingSourceObject: {fileID: 0}
  m_PrefabInstance: {fileID: 0}
  m_PrefabAsset: {fileID: 0}
  m_GameObject: {fileID: 0}
  m_Enabled: 1
  m_EditorHideFlags: 0
  m_Script: {fileID: 11500000, guid: 1aa0f8643742a5940b763b2e6c3d9203, type: 3}
  m_Name: Soldier
  m_EditorClassIdentifier: 
  typeIcon: {fileID: 21300000, guid: 9e5da295643627647b81b7e88edcf5ef, type: 3}
  negativeIcon: {fileID: 21300000, guid: 07fa35dbe2b6c0c4786692141ac6d064, type: 3}
  negativeName: Panic
  negativeDescription: Only 20% chance to hit if zombie is on a adjacent tile.
  positiveIcon: {fileID: 21300000, guid: 79d86c990093a80409344773c9c72bb1, type: 3}
  positiveName: Double Tap
  positiveDescription: Gets 1AP for a kill.
  abilityIcon: {fileID: 21300000, guid: fc8e7e943b85e1048835ecbc0a294294, type: 3}
  abilityName: Bullseye
  abilityDescription: 'The Crit area is increased x3. (Cost: 2AP)'
  abilityAPCost: 2
